…
    ## Parsed with column specification:
    ## cols(
    ##   biden = col_double(),
    ##   female = col_double(),
    ##   pid = col_double(),
    ##   age = col_double(),
    ##   educ = col_double()
    ## )

``` r
#Estimate a basic (single variable) linear regression model of the relationship between gender and feelings towards Joe Biden.
biden 
```

    ## # A tibble: 2,323 x 5
    ##    biden female   pid   age  educ
    ##    <dbl>  <dbl> <dbl> <dbl> <dbl>
    ##  1    90      0     0    19    12
    ##  2    70      1     0    51    14
    ##  3    60      0     1    27    14
    ##  4    50      1     0    43    14
    ##  5    60      1     2    38    14
    ##  6    85      1     0    27    16
    ##  7    60      1     1    28    12
    ##  8    50      0     0    31    15
    ##  9    50      1     1    32    13
    ## 10    70      0     0    51    14
    ## # ... with 2,313 more rows
…
``` r
#Calculate predicted values, graph the relationship between the two variables using the predicted values, and determine whether there appears to be a significant relationship.

grid <- biden %>% 
  data_grid(female, biden) 
grid
```

    ## # A tibble: 50 x 2
    ##    female biden
    ##     <dbl> <dbl>
    ##  1      0     0
    ##  2      0     5
    ##  3      0     8
    ##  4      0    10
    ##  5      0    15
    ##  6      0    20
    ##  7      0    25
    ##  8      0    30
    ##  9      0    35
    ## 10      0    40
    ## # ... with 40 more rows

``` r
grid <- grid %>% 
  add_predictions(bid_mod)
    

grid
```

    ## # A tibble: 50 x 3
    ##    female biden  pred
    ##     <dbl> <dbl> <dbl>
    ##  1      0     0  58.7
    ##  2      0     5  58.7
    ##  3      0     8  58.7
    ##  4      0    10  58.7
    ##  5      0    15  58.7
    ##  6      0    20  58.7
    ##  7      0    25  58.7
    ##  8      0    30  58.7
    ##  9      0    35  58.7
    ## 10      0    40  58.7
    ## # ... with 40 more rows
…
``` r
#Calculate predicted values, graph the relationship between the two variables using the predicted values, and determine whether there appears to be a significant relationship.

grid <- biden %>% 
  data_grid(sex, biden) 
grid
```

    ## # A tibble: 50 x 2
    ##    sex    biden
    ##    <fct>  <dbl>
    ##  1 Female     0
    ##  2 Female     5
    ##  3 Female     8
    ##  4 Female    10
    ##  5 Female    15
    ##  6 Female    20
    ##  7 Female    25
    ##  8 Female    30
    ##  9 Female    35
    ## 10 Female    40
    ## # ... with 40 more rows

``` r
grid <- grid %>% 
  add_predictions(bid_mod)
    

grid
```

    ## # A tibble: 50 x 3
    ##    sex    biden  pred
    ##    <fct>  <dbl> <dbl>
    ##  1 Female     0  64.6
    ##  2 Female     5  64.6
    ##  3 Female     8  64.6
    ##  4 Female    10  64.6
    ##  5 Female    15  64.6
    ##  6 Female    20  64.6
    ##  7 Female    25  64.6
    ##  8 Female    30  64.6
    ##  9 Female    35  64.6
    ## 10 Female    40  64.6
    ## # ... with 40 more rows
…
