…
``` r
#Calculate the leave-one-out-cross-validation error rate for each model. Which model performs the best?
#survive_fare

#begin cross validation
loocv_data <- loo_cv(titanic_train)
loocv_data
```

    ## # Leave-one-out cross-validation 
    ## # A tibble: 891 x 2
    ##    splits       id        
    ##    <list>       <chr>     
    ##  1 <S3: rsplit> Resample1 
    ##  2 <S3: rsplit> Resample2 
    ##  3 <S3: rsplit> Resample3 
    ##  4 <S3: rsplit> Resample4 
    ##  5 <S3: rsplit> Resample5 
    ##  6 <S3: rsplit> Resample6 
    ##  7 <S3: rsplit> Resample7 
    ##  8 <S3: rsplit> Resample8 
    ##  9 <S3: rsplit> Resample9 
    ## 10 <S3: rsplit> Resample10
    ## # ... with 881 more rows
…
  res <- augment(mod, newdata = holdout) %>%
    mutate(.resid = Survived -.fitted)
  res
}

#use map
loocv_data$results <- map(loocv_data$splits, holdout_results)
loocv_data$mse <- map_dbl(loocv_data$results, ~mean(.$.resid^2))
loocv_data
```

    ## # Leave-one-out cross-validation 
    ## # A tibble: 891 x 4
    ##    splits       id         results              mse
    ##    <list>       <chr>      <list>             <dbl>
    ##  1 <S3: rsplit> Resample1  <tibble [1 × 16]> 0.104 
    ##  2 <S3: rsplit> Resample2  <tibble [1 × 16]> 0.146 
    ##  3 <S3: rsplit> Resample3  <tibble [1 × 16]> 0.220 
    ##  4 <S3: rsplit> Resample4  <tibble [1 × 16]> 0.113 
    ##  5 <S3: rsplit> Resample5  <tibble [1 × 16]> 0.103 
    ##  6 <S3: rsplit> Resample6  <tibble [1 × 16]> 0.105 
    ##  7 <S3: rsplit> Resample7  <tibble [1 × 16]> 0.461 
    ##  8 <S3: rsplit> Resample8  <tibble [1 × 16]> 0.461 
    ##  9 <S3: rsplit> Resample9  <tibble [1 × 16]> 0.0919
    ## 10 <S3: rsplit> Resample10 <tibble [1 × 16]> 0.105 
    ## # ... with 881 more rows
…
The mean squared error for survival by fare is 0.222

``` r
#survive_class

#begin cross validation
loocv_data <- loo_cv(titanic_train)
loocv_data
```

    ## # Leave-one-out cross-validation 
    ## # A tibble: 891 x 2
    ##    splits       id        
    ##    <list>       <chr>     
    ##  1 <S3: rsplit> Resample1 
    ##  2 <S3: rsplit> Resample2 
    ##  3 <S3: rsplit> Resample3 
    ##  4 <S3: rsplit> Resample4 
    ##  5 <S3: rsplit> Resample5 
    ##  6 <S3: rsplit> Resample6 
    ##  7 <S3: rsplit> Resample7 
    ##  8 <S3: rsplit> Resample8 
    ##  9 <S3: rsplit> Resample9 
    ## 10 <S3: rsplit> Resample10
    ## # ... with 881 more rows
…
  res <- augment(mod, newdata = holdout) %>%
    mutate(.resid = Survived -.fitted)
  res
}

#use map
loocv_data$results <- map(loocv_data$splits, holdout_results)
loocv_data$mse <- map_dbl(loocv_data$results, ~mean(.$.resid^2))
loocv_data
```

    ## # Leave-one-out cross-validation 
    ## # A tibble: 891 x 4
    ##    splits       id         results              mse
    ##    <list>       <chr>      <list>             <dbl>
    ##  1 <S3: rsplit> Resample1  <tibble [1 × 16]> 0.0616
    ##  2 <S3: rsplit> Resample2  <tibble [1 × 16]> 0.415 
    ##  3 <S3: rsplit> Resample3  <tibble [1 × 16]> 0.568 
    ##  4 <S3: rsplit> Resample4  <tibble [1 × 16]> 0.129 
    ##  5 <S3: rsplit> Resample5  <tibble [1 × 16]> 0.0616
    ##  6 <S3: rsplit> Resample6  <tibble [1 × 16]> 0.198 
    ##  7 <S3: rsplit> Resample7  <tibble [1 × 16]> 0.415 
    ##  8 <S3: rsplit> Resample8  <tibble [1 × 16]> 0.0616
    ##  9 <S3: rsplit> Resample9  <tibble [1 × 16]> 0.0616
    ## 10 <S3: rsplit> Resample10 <tibble [1 × 16]> 0.415 
    ## # ... with 881 more rows
…
  res <- augment(mod, newdata = holdout) %>%
    mutate(.resid = Survived -.fitted)
  res
}

#use map
loocv_data$results <- map(loocv_data$splits, holdout_results)
loocv_data$mse <- map_dbl(loocv_data$results, ~mean(.$.resid^2))
loocv_data
```

    ## # Leave-one-out cross-validation 
    ## # A tibble: 891 x 4
    ##    splits       id         results              mse
    ##    <list>       <chr>      <list>             <dbl>
    ##  1 <S3: rsplit> Resample1  <tibble [1 × 16]> 0.660 
    ##  2 <S3: rsplit> Resample2  <tibble [1 × 16]> 0.660 
    ##  3 <S3: rsplit> Resample3  <tibble [1 × 16]> 0.0358
    ##  4 <S3: rsplit> Resample4  <tibble [1 × 16]> 0.0670
    ##  5 <S3: rsplit> Resample5  <tibble [1 × 16]> 0.0358
    ##  6 <S3: rsplit> Resample6  <tibble [1 × 16]> 0.0358
    ##  7 <S3: rsplit> Resample7  <tibble [1 × 16]> 0.0358
    ##  8 <S3: rsplit> Resample8  <tibble [1 × 16]> 0.0358
    ##  9 <S3: rsplit> Resample9  <tibble [1 × 16]> 0.0358
    ## 10 <S3: rsplit> Resample10 <tibble [1 × 16]> 0.660 
    ## # ... with 881 more rows
…
